tinker_waves.vcd
$date
	Tue Mar 24 23:12:48 2026
$end
$version
	Icarus Verilog
$end
$timescale
	1ps
$end
$scope module tb_tinker $end
$var reg 1 ! clk $end
$var reg 1 " reset $end
$scope module dut $end
$var wire 1 ! clk $end
$var wire 1 " reset $end
$var wire 64 # write_data_reg [63:0] $end
$var wire 64 $ write_data_mem [63:0] $end
$var wire 64 % write_address_mem [63:0] $end
$var wire 64 & rt_val [63:0] $end
$var wire 5 ' rt [4:0] $end
$var wire 64 ( rslt_pc [63:0] $end
$var wire 64 ) rs_val [63:0] $end
$var wire 5 * rs [4:0] $end
$var wire 64 + read_data_mem [63:0] $end
$var wire 64 , rd_val [63:0] $end
$var wire 5 - rd [4:0] $end
$var wire 64 . r31_val [63:0] $end
$var wire 5 / opcode [4:0] $end
$var wire 12 0 literal [11:0] $end
$var wire 1 1 is_write_reg $end
$var wire 1 2 is_write_mem $end
$var wire 32 3 instruction [31:0] $end
$var reg 64 4 pc [63:0] $end
$scope module dec $end
$var wire 5 5 rt [4:0] $end
$var wire 5 6 rs [4:0] $end
$var wire 5 7 rd [4:0] $end
$var wire 5 8 opcode [4:0] $end
$var wire 12 9 literal [11:0] $end
$var wire 32 : instruction [31:0] $end
$upscope $end
$scope module logic_unit $end
$var wire 12 ; literal [11:0] $end
$var wire 5 < opcode [4:0] $end
$var wire 64 = pc [63:0] $end
$var wire 64 > write_data_mov_reg [63:0] $end
$var wire 64 ? write_data_mov_mem [63:0] $end
$var wire 64 @ write_data_branch [63:0] $end
$var wire 64 A write_address_mov_mem [63:0] $end
$var wire 64 B write_address_branch [63:0] $end
$var wire 64 C rt_val [63:0] $end
$var wire 64 D rs_val [63:0] $end
$var wire 64 E rd_val [63:0] $end
$var wire 64 F r31_val [63:0] $end
$var wire 64 G new_pc [63:0] $end
$var wire 64 H load_data [63:0] $end
$var wire 1 I is_write_mov_reg $end
$var wire 1 J is_write_mov_mem $end
$var wire 1 K is_write_branch $end
$var wire 64 L fpu_rslt [63:0] $end
$var wire 64 M alu_rslt [63:0] $end
$var reg 1 2 is_write_mem $end
$var reg 1 1 is_write_reg $end
$var reg 64 N rslt_pc [63:0] $end
$var reg 64 O write_address_mem [63:0] $end
$var reg 64 P write_data_mem [63:0] $end
$var reg 64 Q write_data_reg [63:0] $end
$scope module alu_unit $end
$var wire 12 R literal [11:0] $end
$var wire 5 S opcode [4:0] $end
$var wire 64 T rt_val [63:0] $end
$var wire 64 U rs_val [63:0] $end
$var wire 64 V rd_val [63:0] $end
$var reg 64 W rslt [63:0] $end
$upscope $end
$scope module branch_unit $end
$var wire 12 X literal [11:0] $end
$var wire 5 Y opcode [4:0] $end
$var wire 64 Z pc [63:0] $end
$var wire 64 [ rt_val [63:0] $end
$var wire 64 \ rs_val [63:0] $end
$var wire 64 ] rd_val [63:0] $end
$var wire 64 ^ r31_val [63:0] $end
$var wire 64 _ load_data [63:0] $end
$var reg 1 K is_write $end
$var reg 64 ` new_pc [63:0] $end
$var reg 64 a write_address [63:0] $end
$var reg 64 b write_data [63:0] $end
$upscope $end
$scope module fpu_unit $end
$var wire 12 c literal [11:0] $end
$var wire 5 d opcode [4:0] $end
$var wire 64 e rt_val [63:0] $end
$var wire 1 f rt_sign $end
$var wire 53 g rt_mant [52:0] $end
$var wire 12 h rt_exp [11:0] $end
$var wire 64 i rs_val [63:0] $end
$var wire 1 j rs_sign $end
$var wire 53 k rs_mant [52:0] $end
$var wire 12 l rs_exp [11:0] $end
$var wire 1 m mult_sign $end
$var wire 64 n mult_rslt [63:0] $end
$var wire 54 o mult_mant [53:0] $end
$var wire 13 p mult_exp [12:0] $end
$var wire 1 q is_subtract $end
$var wire 1 r is_divide $end
$var wire 1 s add_sign $end
$var wire 64 t add_rslt [63:0] $end
$var wire 54 u add_mant [53:0] $end
$var wire 13 v add_exp [12:0] $end
$var reg 64 w rslt [63:0] $end
$scope module add_norm $end
$var wire 1 s sign $end
$var wire 54 x mant [53:0] $end
$var wire 13 y exp [12:0] $end
$var reg 1 z found $end
$var reg 14 { norm_exp [13:0] $end
$var reg 53 | norm_mant [52:0] $end
$var reg 64 } rslt [63:0] $end
$var integer 32 ~ i [31:0] $end
$upscope $end
$scope module add_sub $end
$var wire 1 q is_subtract $end
$var wire 1 !" rs_bigger $end
$var wire 54 "" shifted_rt_mant [53:0] $end
$var wire 54 #" shifted_rs_mant [53:0] $end
$var wire 1 f rt_sign $end
$var wire 53 $" rt_mant [52:0] $end
$var wire 12 %" rt_exp [11:0] $end
$var wire 1 s rslt_sign $end
$var wire 54 &" rslt_mant [53:0] $end
$var wire 13 '" rslt_exp [12:0] $end
$var wire 1 j rs_sign $end
$var wire 53 (" rs_mant [52:0] $end
$var wire 12 )" rs_exp [11:0] $end
$var wire 1 *" new_rt_sign $end
$var wire 13 +" exp_shift [12:0] $end
$upscope $end
$scope module mult_div $end
$var wire 1 r is_divide $end
$var wire 1 m rslt_sign $end
$var wire 1 f rt_sign $end
$var wire 53 ," rt_mant [52:0] $end
$var wire 12 -" rt_exp [11:0] $end
$var wire 54 ." rslt_mant [53:0] $end
$var wire 13 /" rslt_exp [12:0] $end
$var wire 1 j rs_sign $end
$var wire 105 0" rs_mant_padded [104:0] $end
$var wire 53 1" rs_mant [52:0] $end
$var wire 12 2" rs_exp [11:0] $end
$var wire 106 3" mult_mant [105:0] $end
$var wire 54 4" div_mant [53:0] $end
$upscope $end
$scope module mult_norm $end
$var wire 13 5" exp [12:0] $end
$var wire 54 6" mant [53:0] $end
$var wire 1 m sign $end
$var reg 1 7" found $end
$var reg 14 8" norm_exp [13:0] $end
$var reg 53 9" norm_mant [52:0] $end
$var reg 64 :" rslt [63:0] $end
$var integer 32 ;" i [31:0] $end
$upscope $end
$scope module rs_unpack $end
$var wire 1 j sign $end
$var wire 53 <" mant [52:0] $end
$var wire 52 =" in_mant [51:0] $end
$var wire 11 >" in_exp [10:0] $end
$var wire 64 ?" in [63:0] $end
$var wire 12 @" exp [11:0] $end
$upscope $end
$scope module rt_unpack $end
$var wire 1 f sign $end
$var wire 53 A" mant [52:0] $end
$var wire 52 B" in_mant [51:0] $end
$var wire 11 C" in_exp [10:0] $end
$var wire 64 D" in [63:0] $end
$var wire 12 E" exp [11:0] $end
$upscope $end
$upscope $end
$scope module mov_unit $end
$var wire 12 F" literal [11:0] $end
$var wire 5 G" opcode [4:0] $end
$var wire 64 H" rt_val [63:0] $end
$var wire 64 I" rs_val [63:0] $end
$var wire 64 J" rd_val [63:0] $end
$var wire 64 K" load_data [63:0] $end
$var reg 64 L" data_address_mem [63:0] $end
$var reg 1 J is_write_mem $end
$var reg 1 I is_write_reg $end
$var reg 64 M" write_data_mem [63:0] $end
$var reg 64 N" write_data_reg [63:0] $end
$upscope $end
$upscope $end
$scope module mem $end
$var wire 64 O" address [63:0] $end
$var wire 1 ! clk $end
$var wire 1 2 is_write $end
$var wire 64 P" pc [63:0] $end
$var wire 64 Q" write_data [63:0] $end
$var wire 64 R" read_data [63:0] $end
$var wire 32 S" instruction [31:0] $end
$var parameter 64 T" MEM_SIZE $end
$var integer 32 U" i [31:0] $end
$upscope $end
$scope module regs $end
$var wire 1 ! clk $end
$var wire 1 1 is_write $end
$var wire 64 V" r31_val [63:0] $end
$var wire 64 W" read_data1 [63:0] $end
$var wire 64 X" read_data2 [63:0] $end
$var wire 64 Y" read_data3 [63:0] $end
$var wire 5 Z" read_reg1 [4:0] $end
$var wire 5 [" read_reg2 [4:0] $end
$var wire 5 \" read_reg3 [4:0] $end
$var wire 1 " reset $end
$var wire 64 ]" write_data [63:0] $end
$var wire 5 ^" write_reg [4:0] $end
$var parameter 64 _" MEM_SIZE $end
$scope begin $ivl_for_loop0 $end
$var integer 32 `" i [31:0] $end
$upscope $end
$upscope $end
$upscope $end
$upscope $end
$enddefinitions $end
$comment Show the parameter values. $end
$dumpall
b10000000000000000000 _"
b10000000000000000000 T"
$end
#0
$dumpvars
b0 `"
bx ^"
bx ]"
bx \"
bx ["
bx Z"
bx Y"
bx X"
bx W"
bx V"
bx U"
bx S"
bx R"
bx Q"
bx P"
bx O"
bx N"
bx M"
bx L"
bx K"
bx J"
bx I"
bx H"
bx G"
bx F"
b0xxxxxxxxxxx E"
bx D"
bx C"
bx B"
bx A"
b0xxxxxxxxxxx @"
bx ?"
bx >"
bx ="
bx <"
bx ;"
bx :"
bx 9"
bx 8"
x7"
bx 6"
bx 5"
bx 4"
bx 3"
b0xxxxxxxxxxx 2"
bx 1"
bx0000000000000000000000000000000000000000000000000000 0"
bx /"
bx ."
b0xxxxxxxxxxx -"
bx ,"
bx +"
x*"
b0xxxxxxxxxxx )"
bx ("
b0xxxxxxxxxxx '"
bx &"
b0xxxxxxxxxxx %"
bx $"
bx #"
bx ""
x!"
b11111111111111111111111111111111 ~
bx }
bx |
b0xxxxxxxxxxx {
0z
b0xxxxxxxxxxx y
bx x
bx w
b0xxxxxxxxxxx v
bx u
bx t
xs
xr
xq
bx p
bx o
bx n
xm
b0xxxxxxxxxxx l
bx k
xj
bx i
b0xxxxxxxxxxx h
bx g
xf
bx e
bx d
bx c
bx b
bx a
bx `
bx _
bx ^
bx ]
bx \
bx [
bx Z
bx Y
bx X
bx W
bx V
bx U
bx T
bx S
bx R
bx Q
bx P
bx O
bx N
bx M
bx L
xK
xJ
xI
bx H
bx G
bx F
bx E
bx D
bx C
bx B
bx A
bx @
bx ?
bx >
bx =
bx <
bx ;
bx :
bx 9
bx 8
bx 7
bx 6
bx 5
bx 4
bx 3
x2
x1
bx 0
bx /
bx .
bx -
bx ,
bx +
bx *
bx )
bx (
bx '
bx &
bx %
bx $
bx #
1"
0!
$end
#5000
b0 t
b0 }
b0 |
b0 u
b0 x
b0 &"
b0 n
b0 :"
b0 9"
b11110000000011 8"
b0 #"
b0 ""
b0 o
b0 ."
b0 6"
b1110000000011 p
b1110000000011 /"
b1110000000011 5"
b0 +"
1!"
b11111111111111111111111111111111 ~
b1 {
b1 v
b1 y
b1 '"
b11111111111111111111111111111111 ;"
07"
b1 l
b1 )"
b1 2"
b1 @"
b0 0"
b0 3"
b0 k
b0 ("
b0 1"
b0 <"
0s
b1 h
b1 %"
b1 -"
b1 E"
b0 g
b0 $"
b0 ,"
b0 A"
0m
0*"
b0 ="
b0 >"
0j
b0 B"
b0 C"
0f
b0 M
b0 W
b0 A
b0 L"
b1010 >
b1010 N"
b0 ?
b0 M"
1I
0J
b10000000000000 G
b10000000000000 `
b0 @
b0 b
b0 B
b0 a
0K
0q
0r
b10010 /
b10010 8
b10010 <
b10010 S
b10010 Y
b10010 d
b10010 G"
b0 )
b0 D
b0 U
b0 \
b0 i
b0 ?"
b0 I"
b0 X"
b0 *
b0 6
b0 ["
b0 ,
b0 E
b0 V
b0 ]
b0 J"
b0 W"
b11 -
b11 7
b11 Z"
b11 ^"
b0 &
b0 C
b0 T
b0 [
b0 e
b0 D"
b0 H"
b0 Y"
b0 '
b0 5
b0 \"
b1010 0
b1010 9
b1010 ;
b1010 R
b1010 X
b1010 c
b1010 F"
b1010 #
b1010 Q
b1010 ]"
b0 $
b0 P
b0 Q"
b0 %
b0 O
b0 O"
b10000000000100 (
b10000000000100 N
02
11
b10000000000000000000 .
b10000000000000000000 F
b10000000000000000000 ^
b10000000000000000000 V"
b10010000110000000000000000001010 3
b10010000110000000000000000001010 :
b10010000110000000000000000001010 S"
b10000000000000 4
b10000000000000 =
b10000000000000 Z
b10000000000000 P"
b11111 `"
1!
#10000
0!
#15000
b11111 `"
1!
#20000
0!
0"
#25000
b100 -
b100 7
b100 Z"
b100 ^"
b10 0
b10 9
b10 ;
b10 R
b10 X
b10 c
b10 F"
b10 #
b10 Q
b10 ]"
b10000000001000 (
b10000000001000 N
11
b10000000000100 G
b10000000000100 `
b10 >
b10 N"
1I
b10010001000000000000000000000010 3
b10010001000000000000000000000010 :
b10010001000000000000000000000010 S"
b10000000000100 4
b10000000000100 =
b10000000000100 Z
b10000000000100 P"
b0 ,
b0 E
b0 V
b0 ]
b0 J"
b0 W"
1!
#30000
0!
#35000
b10000000000000 M
b10000000000000 W
b0 >
b0 N"
0I
b10000000001000 G
b10000000001000 `
b111 /
b111 8
b111 <
b111 S
b111 Y
b111 d
b111 G"
b1100 0
b1100 9
b1100 ;
b1100 R
b1100 X
b1100 c
b1100 F"
b10000000000000 #
b10000000000000 Q
b10000000000000 ]"
b10000000001100 (
b10000000001100 N
11
b10 ,
b10 E
b10 V
b10 ]
b10 J"
b10 W"
b111001000000000000000000001100 3
b111001000000000000000000001100 :
b111001000000000000000000001100 S"
b10000000001000 4
b10000000001000 =
b10000000001000 Z
b10000000001000 P"
1!
#40000
0!
#45000
b11001 /
b11001 8
b11001 <
b11001 S
b11001 Y
b11001 d
b11001 G"
b10000 0
b10000 9
b10000 ;
b10000 R
b10000 X
b10000 c
b10000 F"
b10000000010000 #
b10000000010000 Q
b10000000010000 ]"
b10000000010000 (
b10000000010000 N
11
b10000000010000 M
b10000000010000 W
b10000000001100 G
b10000000001100 `
b11001001000000000000000000010000 3
b11001001000000000000000000010000 :
b11001001000000000000000000010000 S"
b10000000001100 4
b10000000001100 =
b10000000001100 Z
b10000000001100 P"
b10000000000000 ,
b10000000000000 E
b10000000000000 V
b10000000000000 ]
b10000000000000 J"
b10000000000000 W"
1!
#50000
0!
#55000
b1 M
b1 W
b10000000010000 G
b10000000010000 `
b1 -
b1 7
b1 Z"
b1 ^"
b1 0
b1 9
b1 ;
b1 R
b1 X
b1 c
b1 F"
b1 #
b1 Q
b1 ]"
b10000000010100 (
b10000000010100 N
11
b0 ,
b0 E
b0 V
b0 ]
b0 J"
b0 W"
b11001000010000000000000000000001 3
b11001000010000000000000000000001 :
b11001000010000000000000000000001 S"
b10000000010000 4
b10000000010000 =
b10000000010000 Z
b10000000010000 P"
1!
#60000
0!
#65000
b10 -
b10 7
b10 Z"
b10 ^"
b1 #
b1 Q
b1 ]"
b10000000011000 (
b10000000011000 N
11
b1 M
b1 W
b10000000010100 G
b10000000010100 `
b11001000100000000000000000000001 3
b11001000100000000000000000000001 :
b11001000100000000000000000000001 S"
b10000000010100 4
b10000000010100 =
b10000000010100 Z
b10000000010100 P"
b0 ,
b0 E
b0 V
b0 ]
b0 J"
b0 W"
1!
#70000
0!
#75000
b1001 M
b1001 W
b10000000011000 G
b10000000011000 `
b11011 /
b11011 8
b11011 <
b11011 S
b11011 Y
b11011 d
b11011 G"
b11 -
b11 7
b11 Z"
b11 ^"
b1001 #
b1001 Q
b1001 ]"
b10000000011100 (
b10000000011100 N
11
b1010 ,
b1010 E
b1010 V
b1010 ]
b1010 J"
b1010 W"
b11011000110000000000000000000001 3
b11011000110000000000000000000001 :
b11011000110000000000000000000001 S"
b10000000011000 4
b10000000011000 =
b10000000011000 Z
b10000000011000 P"
1!
#80000
0!
#85000
b1001 t
b1001 }
1z
b11111111010000 {
b11111111111111111111111111111111 ~
b1001 |
b1001 u
b1001 x
b1001 &"
b1001 #"
b10010000000000000000000000000000000000000000000000000000 0"
b1001 k
b1001 ("
b1001 1"
b1001 <"
b1001 ="
b1011 /
b1011 8
b1011 <
b1011 S
b1011 Y
b1011 d
b1011 G"
b1001 )
b1001 D
b1001 U
b1001 \
b1001 i
b1001 ?"
b1001 I"
b1001 X"
b11 *
b11 6
b11 ["
b100 -
b100 7
b100 Z"
b100 ^"
b0 0
b0 9
b0 ;
b0 R
b0 X
b0 c
b0 F"
b0 #
b0 Q
b0 ]"
b10000000010000 (
b10000000010000 N
01
b0 M
b0 W
b10000000010000 G
b10000000010000 `
b1011001000001100000000000000000 3
b1011001000001100000000000000000 :
b1011001000001100000000000000000 S"
b10000000011100 4
b10000000011100 =
b10000000011100 Z
b10000000011100 P"
b10000000010000 ,
b10000000010000 E
b10000000010000 V
b10000000010000 ]
b10000000010000 J"
b10000000010000 W"
1!
#90000
0!
#95000
b0 t
b0 }
0z
b0 |
b1 {
b0 u
b0 x
b0 &"
b0 #"
b0 0"
b0 k
b0 ("
b0 1"
b0 <"
11
b10 #
b10 Q
b10 ]"
b0 ="
b10 M
b10 W
b11001 /
b11001 8
b11001 <
b11001 S
b11001 Y
b11001 d
b11001 G"
b0 )
b0 D
b0 U
b0 \
b0 i
b0 ?"
b0 I"
b0 X"
b0 *
b0 6
b0 ["
b1 ,
b1 E
b1 V
b1 ]
b1 J"
b1 W"
b1 -
b1 7
b1 Z"
b1 ^"
b1 0
b1 9
b1 ;
b1 R
b1 X
b1 c
b1 F"
b10000000010100 (
b10000000010100 N
b11001000010000000000000000000001 3
b11001000010000000000000000000001 :
b11001000010000000000000000000001 S"
b10000000010000 4
b10000000010000 =
b10000000010000 Z
b10000000010000 P"
1!
#100000
0!
#105000
b10 -
b10 7
b10 Z"
b10 ^"
b10 #
b10 Q
b10 ]"
b10000000011000 (
b10000000011000 N
11
b10 M
b10 W
b10000000010100 G
b10000000010100 `
b11001000100000000000000000000001 3
b11001000100000000000000000000001 :
b11001000100000000000000000000001 S"
b10000000010100 4
b10000000010100 =
b10000000010100 Z
b10000000010100 P"
b1 ,
b1 E
b1 V
b1 ]
b1 J"
b1 W"
1!
#110000
0!
#115000
b1000 M
b1000 W
b10000000011000 G
b10000000011000 `
b11011 /
b11011 8
b11011 <
b11011 S
b11011 Y
b11011 d
b11011 G"
b11 -
b11 7
b11 Z"
b11 ^"
b1000 #
b1000 Q
b1000 ]"
b10000000011100 (
b10000000011100 N
11
b1001 ,
b1001 E
b1001 V
b1001 ]
b1001 J"
b1001 W"
b11011000110000000000000000000001 3
b11011000110000000000000000000001 :
b11011000110000000000000000000001 S"
b10000000011000 4
b10000000011000 =
b10000000011000 Z
b10000000011000 P"
1!
#120000
0!
#125000
b1000 t
b1000 }
1z
b11111111010000 {
b11111111111111111111111111111111 ~
b1000 |
b1000 u
b1000 x
b1000 &"
b1000 #"
b10000000000000000000000000000000000000000000000000000000 0"
b1000 k
b1000 ("
b1000 1"
b1000 <"
b1000 ="
b1011 /
b1011 8
b1011 <
b1011 S
b1011 Y
b1011 d
b1011 G"
b1000 )
b1000 D
b1000 U
b1000 \
b1000 i
b1000 ?"
b1000 I"
b1000 X"
b11 *
b11 6
b11 ["
b100 -
b100 7
b100 Z"
b100 ^"
b0 0
b0 9
b0 ;
b0 R
b0 X
b0 c
b0 F"
b0 #
b0 Q
b0 ]"
b10000000010000 (
b10000000010000 N
01
b0 M
b0 W
b10000000010000 G
b10000000010000 `
b1011001000001100000000000000000 3
b1011001000001100000000000000000 :
b1011001000001100000000000000000 S"
b10000000011100 4
b10000000011100 =
b10000000011100 Z
b10000000011100 P"
b10000000010000 ,
b10000000010000 E
b10000000010000 V
b10000000010000 ]
b10000000010000 J"
b10000000010000 W"
1!
#130000
0!
#135000
b0 t
b0 }
0z
b0 |
b1 {
b0 u
b0 x
b0 &"
b0 #"
b0 0"
b0 k
b0 ("
b0 1"
b0 <"
11
b11 #
b11 Q
b11 ]"
b0 ="
b11 M
b11 W
b11001 /
b11001 8
b11001 <
b11001 S
b11001 Y
b11001 d
b11001 G"
b0 )
b0 D
b0 U
b0 \
b0 i
b0 ?"
b0 I"
b0 X"
b0 *
b0 6
b0 ["
b10 ,
b10 E
b10 V
b10 ]
b10 J"
b10 W"
b1 -
b1 7
b1 Z"
b1 ^"
b1 0
b1 9
b1 ;
b1 R
b1 X
b1 c
b1 F"
b10000000010100 (
b10000000010100 N
b11001000010000000000000000000001 3
b11001000010000000000000000000001 :
b11001000010000000000000000000001 S"
b10000000010000 4
b10000000010000 =
b10000000010000 Z
b10000000010000 P"
1!
#140000
0!
#145000
b10 -
b10 7
b10 Z"
b10 ^"
b11 #
b11 Q
b11 ]"
b10000000011000 (
b10000000011000 N
11
b11 M
b11 W
b10000000010100 G
b10000000010100 `
b11001000100000000000000000000001 3
b11001000100000000000000000000001 :
b11001000100000000000000000000001 S"
b10000000010100 4
b10000000010100 =
b10000000010100 Z
b10000000010100 P"
b10 ,
b10 E
b10 V
b10 ]
b10 J"
b10 W"
1!
#150000
0!
#155000
b111 M
b111 W
b10000000011000 G
b10000000011000 `
b11011 /
b11011 8
b11011 <
b11011 S
b11011 Y
b11011 d
b11011 G"
b11 -
b11 7
b11 Z"
b11 ^"
b111 #
b111 Q
b111 ]"
b10000000011100 (
b10000000011100 N
11
b1000 ,
b1000 E
b1000 V
b1000 ]
b1000 J"
b1000 W"
b11011000110000000000000000000001 3
b11011000110000000000000000000001 :
b11011000110000000000000000000001 S"
b10000000011000 4
b10000000011000 =
b10000000011000 Z
b10000000011000 P"
1!
#160000
0!
#165000
b111 t
b111 }
1z
b11111111001111 {
b11111111111111111111111111111111 ~
b111 |
b111 u
b111 x
b111 &"
b111 #"
b1110000000000000000000000000000000000000000000000000000 0"
b111 k
b111 ("
b111 1"
b111 <"
b111 ="
b1011 /
b1011 8
b1011 <
b1011 S
b1011 Y
b1011 d
b1011 G"
b111 )
b111 D
b111 U
b111 \
b111 i
b111 ?"
b111 I"
b111 X"
b11 *
b11 6
b11 ["
b100 -
b100 7
b100 Z"
b100 ^"
b0 0
b0 9
b0 ;
b0 R
b0 X
b0 c
b0 F"
b0 #
b0 Q
b0 ]"
b10000000010000 (
b10000000010000 N
01
b0 M
b0 W
b10000000010000 G
b10000000010000 `
b1011001000001100000000000000000 3
b1011001000001100000000000000000 :
b1011001000001100000000000000000 S"
b10000000011100 4
b10000000011100 =
b10000000011100 Z
b10000000011100 P"
b10000000010000 ,
b10000000010000 E
b10000000010000 V
b10000000010000 ]
b10000000010000 J"
b10000000010000 W"
1!
#170000
0!
#175000
b0 t
b0 }
0z
b0 |
b1 {
b0 u
b0 x
b0 &"
b0 #"
b0 0"
b0 k
b0 ("
b0 1"
b0 <"
11
b100 #
b100 Q
b100 ]"
b0 ="
b100 M
b100 W
b11001 /
b11001 8
b11001 <
b11001 S
b11001 Y
b11001 d
b11001 G"
b0 )
b0 D
b0 U
b0 \
b0 i
b0 ?"
b0 I"
b0 X"
b0 *
b0 6
b0 ["
b11 ,
b11 E
b11 V
b11 ]
b11 J"
b11 W"
b1 -
b1 7
b1 Z"
b1 ^"
b1 0
b1 9
b1 ;
b1 R
b1 X
b1 c
b1 F"
b10000000010100 (
b10000000010100 N
b11001000010000000000000000000001 3
b11001000010000000000000000000001 :
b11001000010000000000000000000001 S"
b10000000010000 4
b10000000010000 =
b10000000010000 Z
b10000000010000 P"
1!
#180000
0!
#185000
b10 -
b10 7
b10 Z"
b10 ^"
b100 #
b100 Q
b100 ]"
b10000000011000 (
b10000000011000 N
11
b100 M
b100 W
b10000000010100 G
b10000000010100 `
b11001000100000000000000000000001 3
b11001000100000000000000000000001 :
b11001000100000000000000000000001 S"
b10000000010100 4
b10000000010100 =
b10000000010100 Z
b10000000010100 P"
b11 ,
b11 E
b11 V
b11 ]
b11 J"
b11 W"
1!
#190000
0!
#195000
b110 M
b110 W
b10000000011000 G
b10000000011000 `
b11011 /
b11011 8
b11011 <
b11011 S
b11011 Y
b11011 d
b11011 G"
b11 -
b11 7
b11 Z"
b11 ^"
b110 #
b110 Q
b110 ]"
b10000000011100 (
b10000000011100 N
11
b111 ,
b111 E
b111 V
b111 ]
b111 J"
b111 W"
b11011000110000000000000000000001 3
b11011000110000000000000000000001 :
b11011000110000000000000000000001 S"
b10000000011000 4
b10000000011000 =
b10000000011000 Z
b10000000011000 P"
1!
#200000
0!
#205000
b110 t
b110 }
1z
b11111111001111 {
b11111111111111111111111111111111 ~
b110 |
b110 u
b110 x
b110 &"
b110 #"
b1100000000000000000000000000000000000000000000000000000 0"
b110 k
b110 ("
b110 1"
b110 <"
b110 ="
b1011 /
b1011 8
b1011 <
b1011 S
b1011 Y
b1011 d
b1011 G"
b110 )
b110 D
b110 U
b110 \
b110 i
b110 ?"
b110 I"
b110 X"
b11 *
b11 6
b11 ["
b100 -
b100 7
b100 Z"
b100 ^"
b0 0
b0 9
b0 ;
b0 R
b0 X
b0 c
b0 F"
b0 #
b0 Q
b0 ]"
b10000000010000 (
b10000000010000 N
01
b0 M
b0 W
b10000000010000 G
b10000000010000 `
b1011001000001100000000000000000 3
b1011001000001100000000000000000 :
b1011001000001100000000000000000 S"
b10000000011100 4
b10000000011100 =
b10000000011100 Z
b10000000011100 P"
b10000000010000 ,
b10000000010000 E
b10000000010000 V
b10000000010000 ]
b10000000010000 J"
b10000000010000 W"
1!
#210000
0!
#215000
b0 t
b0 }
0z
b0 |
b1 {
b0 u
b0 x
b0 &"
b0 #"
b0 0"
b0 k
b0 ("
b0 1"
b0 <"
11
b101 #
b101 Q
b101 ]"
b0 ="
b101 M
b101 W
b11001 /
b11001 8
b11001 <
b11001 S
b11001 Y
b11001 d
b11001 G"
b0 )
b0 D
b0 U
b0 \
b0 i
b0 ?"
b0 I"
b0 X"
b0 *
b0 6
b0 ["
b100 ,
b100 E
b100 V
b100 ]
b100 J"
b100 W"
b1 -
b1 7
b1 Z"
b1 ^"
b1 0
b1 9
b1 ;
b1 R
b1 X
b1 c
b1 F"
b10000000010100 (
b10000000010100 N
b11001000010000000000000000000001 3
b11001000010000000000000000000001 :
b11001000010000000000000000000001 S"
b10000000010000 4
b10000000010000 =
b10000000010000 Z
b10000000010000 P"
1!
#220000
0!
#225000
b10 -
b10 7
b10 Z"
b10 ^"
b101 #
b101 Q
b101 ]"
b10000000011000 (
b10000000011000 N
11
b101 M
b101 W
b10000000010100 G
b10000000010100 `
b11001000100000000000000000000001 3
b11001000100000000000000000000001 :
b11001000100000000000000000000001 S"
b10000000010100 4
b10000000010100 =
b10000000010100 Z
b10000000010100 P"
b100 ,
b100 E
b100 V
b100 ]
b100 J"
b100 W"
1!
#230000
0!
#235000
b10000000011000 G
b10000000011000 `
b11011 /
b11011 8
b11011 <
b11011 S
b11011 Y
b11011 d
b11011 G"
b11 -
b11 7
b11 Z"
b11 ^"
b101 #
b101 Q
b101 ]"
b10000000011100 (
b10000000011100 N
11
b110 ,
b110 E
b110 V
b110 ]
b110 J"
b110 W"
b11011000110000000000000000000001 3
b11011000110000000000000000000001 :
b11011000110000000000000000000001 S"
b10000000011000 4
b10000000011000 =
b10000000011000 Z
b10000000011000 P"
1!
#240000
0!
#245000
b101 t
b101 }
1z
b11111111001111 {
b11111111111111111111111111111111 ~
b101 |
b101 u
b101 x
b101 &"
b101 #"
b1010000000000000000000000000000000000000000000000000000 0"
b101 k
b101 ("
b101 1"
b101 <"
b101 ="
b1011 /
b1011 8
b1011 <
b1011 S
b1011 Y
b1011 d
b1011 G"
b101 )
b101 D
b101 U
b101 \
b101 i
b101 ?"
b101 I"
b101 X"
b11 *
b11 6
b11 ["
b100 -
b100 7
b100 Z"
b100 ^"
b0 0
b0 9
b0 ;
b0 R
b0 X
b0 c
b0 F"
b0 #
b0 Q
b0 ]"
b10000000010000 (
b10000000010000 N
01
b0 M
b0 W
b10000000010000 G
b10000000010000 `
b1011001000001100000000000000000 3
b1011001000001100000000000000000 :
b1011001000001100000000000000000 S"
b10000000011100 4
b10000000011100 =
b10000000011100 Z
b10000000011100 P"
b10000000010000 ,
b10000000010000 E
b10000000010000 V
b10000000010000 ]
b10000000010000 J"
b10000000010000 W"
1!
#250000
0!
#255000
b0 t
b0 }
0z
b0 |
b1 {
b0 u
b0 x
b0 &"
b0 #"
b0 0"
b0 k
b0 ("
b0 1"
b0 <"
11
b110 #
b110 Q
b110 ]"
b0 ="
b110 M
b110 W
b11001 /
b11001 8
b11001 <
b11001 S
b11001 Y
b11001 d
b11001 G"
b0 )
b0 D
b0 U
b0 \
b0 i
b0 ?"
b0 I"
b0 X"
b0 *
b0 6
b0 ["
b101 ,
b101 E
b101 V
b101 ]
b101 J"
b101 W"
b1 -
b1 7
b1 Z"
b1 ^"
b1 0
b1 9
b1 ;
b1 R
b1 X
b1 c
b1 F"
b10000000010100 (
b10000000010100 N
b11001000010000000000000000000001 3
b11001000010000000000000000000001 :
b11001000010000000000000000000001 S"
b10000000010000 4
b10000000010000 =
b10000000010000 Z
b10000000010000 P"
1!
#260000
0!
#265000
b10 -
b10 7
b10 Z"
b10 ^"
b110 #
b110 Q
b110 ]"
b10000000011000 (
b10000000011000 N
11
b110 M
b110 W
b10000000010100 G
b10000000010100 `
b11001000100000000000000000000001 3
b11001000100000000000000000000001 :
b11001000100000000000000000000001 S"
b10000000010100 4
b10000000010100 =
b10000000010100 Z
b10000000010100 P"
b101 ,
b101 E
b101 V
b101 ]
b101 J"
b101 W"
1!
#270000
0!
#275000
b100 M
b100 W
b10000000011000 G
b10000000011000 `
b11011 /
b11011 8
b11011 <
b11011 S
b11011 Y
b11011 d
b11011 G"
b11 -
b11 7
b11 Z"
b11 ^"
b100 #
b100 Q
b100 ]"
b10000000011100 (
b10000000011100 N
11
b101 ,
b101 E
b101 V
b101 ]
b101 J"
b101 W"
b11011000110000000000000000000001 3
b11011000110000000000000000000001 :
b11011000110000000000000000000001 S"
b10000000011000 4
b10000000011000 =
b10000000011000 Z
b10000000011000 P"
1!
#280000
0!
